{
  "files": {
    "main.css": "/static/css/main.1e1c8c67.chunk.css",
    "main.js": "/static/js/main.d5eb6582.chunk.js",
    "main.js.map": "/static/js/main.d5eb6582.chunk.js.map",
    "runtime-main.js": "/static/js/runtime-main.a0035c6f.js",
    "runtime-main.js.map": "/static/js/runtime-main.a0035c6f.js.map",
    "static/css/2.70d9d258.chunk.css": "/static/css/2.70d9d258.chunk.css",
    "static/js/2.bfebeeeb.chunk.js": "/static/js/2.bfebeeeb.chunk.js",
    "static/js/2.bfebeeeb.chunk.js.map": "/static/js/2.bfebeeeb.chunk.js.map",
    "index.html": "/index.html",
    "precache-manifest.a41b7cdceac18149bf787f41b03c7cb4.js": "/precache-manifest.a41b7cdceac18149bf787f41b03c7cb4.js",
    "service-worker.js": "/service-worker.js",
    "static/css/2.70d9d258.chunk.css.map": "/static/css/2.70d9d258.chunk.css.map",
    "static/css/main.1e1c8c67.chunk.css.map": "/static/css/main.1e1c8c67.chunk.css.map",
    "static/js/2.bfebeeeb.chunk.js.LICENSE.txt": "/static/js/2.bfebeeeb.chunk.js.LICENSE.txt"
  },
  "entrypoints": [
    "static/js/runtime-main.a0035c6f.js",
    "static/css/2.70d9d258.chunk.css",
    "static/js/2.bfebeeeb.chunk.js",
    "static/css/main.1e1c8c67.chunk.css",
    "static/js/main.d5eb6582.chunk.js"
  ]
}